{
  "host": "localhost",
  "port": 3030,
  "public": "../public/",
  "paginate": "False",
  "authentication": {
    "entity": "user",
    "service": "users",
    "secret": "VzzIlOpYQa3dxfub9d5iLwrlkxI=",
    "authStrategies": [
      "jwt",
      "local"
    ],
    "jwtOptions": {
      "header": {
        "typ": "access"
      },
      "audience": "https://yourdomain.com",
      "issuer": "feathers",
      "algorithm": "HS256",
      "expiresIn": "1d"
    },
    "local": {
      "usernameField": "email",
      "passwordField": "password"
    }
  },
  "sqlite": {
    "client": "sqlite3",
    "connection": {
      "filename": "node.sqlite"
    }
  }
}
